CPU_TB.vcd
$date
	Tue Nov 28 01:18:12 2023
$end
$version
	Icarus Verilog
$end
$timescale
	1ns
$end
$scope module CPU_TB $end
$var reg 1 ! clk $end
$var reg 1 " reset $end
$var reg 1 # rst $end
$scope module cpu $end
$var wire 1 ! clk $end
$var wire 1 " reset $end
$var wire 1 # rst $end
$var wire 1 $ we_memwb $end
$var wire 1 % we_idex $end
$var wire 1 & we_exmem $end
$var wire 1 ' we $end
$var wire 32 ( sum_out_memwb [31:0] $end
$var wire 32 ) sum_out_ifid [31:0] $end
$var wire 32 * sum_out_idex [31:0] $end
$var wire 32 + sum_out_exmem [31:0] $end
$var wire 32 , sum_out [31:0] $end
$var wire 1 - store_idex $end
$var wire 1 . store_exmem $end
$var wire 1 / store $end
$var wire 3 0 salida_funct3_idex [2:0] $end
$var wire 3 1 salida_funct3 [2:0] $end
$var wire 5 2 rs2_idex [4:0] $end
$var wire 5 3 rs1_idex [4:0] $end
$var wire 32 4 result_memwb [31:0] $end
$var wire 32 5 result_exmem [31:0] $end
$var wire 32 6 result [31:0] $end
$var wire 5 7 rd_memwb [4:0] $end
$var wire 5 8 rd_idex [4:0] $end
$var wire 5 9 rd_exmem [4:0] $end
$var wire 32 : pc_out_ifid [31:0] $end
$var wire 32 ; pc_out_idex [31:0] $end
$var wire 32 < pc_out [31:0] $end
$var wire 32 = pc_in [31:0] $end
$var wire 32 > operand2 [31:0] $end
$var wire 32 ? operand1 [31:0] $end
$var wire 1 @ load_idex $end
$var wire 1 A load_exmem $end
$var wire 32 B load_data [31:0] $end
$var wire 32 C loadData_memwb [31:0] $end
$var wire 1 D load $end
$var wire 32 E instruction_ifid [31:0] $end
$var wire 32 F instruction [31:0] $end
$var wire 32 G imm_idex [31:0] $end
$var wire 32 H imm_exmem [31:0] $end
$var wire 32 I imm32 [31:0] $end
$var wire 1 J hazard_detection $end
$var wire 3 K funct_imm [2:0] $end
$var wire 32 L data2_mux [31:0] $end
$var wire 32 M data2_idex [31:0] $end
$var wire 32 N data2_exmem [31:0] $end
$var wire 32 O data2 [31:0] $end
$var wire 32 P data1_mux [31:0] $end
$var wire 32 Q data1_idex [31:0] $end
$var wire 32 R data1_exmem [31:0] $end
$var wire 32 S data1 [31:0] $end
$var wire 32 T data [31:0] $end
$var wire 2 U controlRF_memwb [1:0] $end
$var wire 2 V controlRF_idex [1:0] $end
$var wire 2 W controlRF_exmem [1:0] $end
$var wire 2 X controlRF [1:0] $end
$var wire 1 Y controlOp1_idex $end
$var wire 1 Z controlOp1 $end
$var wire 1 [ controlALU_idex $end
$var wire 1 \ controlALU $end
$var wire 2 ] control2 [1:0] $end
$var wire 2 ^ control1 [1:0] $end
$var wire 3 _ Type_dm_idex [2:0] $end
$var wire 3 ` Type_dm_exmem [2:0] $end
$var wire 3 a Type_dm [2:0] $end
$var wire 1 b Type_alu_dm_idex $end
$var wire 1 c Type_alu_dm $end
$var wire 1 d NextPCSrc $end
$var wire 5 e BrOp_idex [4:0] $end
$var wire 5 f BrOp [4:0] $end
$var parameter 32 g TAM $end
$var reg 3 h funct3 [2:0] $end
$var reg 7 i funct7 [6:0] $end
$var reg 25 j immediate [24:0] $end
$var reg 7 k opcode [6:0] $end
$var reg 5 l rd [4:0] $end
$var reg 1 m read $end
$var reg 5 n rs1 [4:0] $end
$var reg 5 o rs2 [4:0] $end
$scope module alu $end
$var wire 1 p clk $end
$var wire 32 q operand2 [31:0] $end
$var wire 32 r operand1 [31:0] $end
$var wire 3 s funct3_alu [2:0] $end
$var wire 1 b Type_alu $end
$var reg 1 t bit_significativo $end
$var reg 32 u conteo [31:0] $end
$var reg 32 v result [31:0] $end
$upscope $end
$scope module branch $end
$var wire 32 w RUrs2 [31:0] $end
$var wire 32 x RUrs1 [31:0] $end
$var wire 5 y BrOp [4:0] $end
$var reg 1 d NextPCSrc $end
$upscope $end
$scope module cu $end
$var wire 3 z funct3 [2:0] $end
$var wire 7 { funct7 [6:0] $end
$var wire 7 | opcode [6:0] $end
$var reg 5 } BrOp [4:0] $end
$var reg 1 c Type_alu $end
$var reg 3 ~ Type_dm [2:0] $end
$var reg 1 \ controlALU $end
$var reg 1 Z controlOp1 $end
$var reg 2 !" controlRF [1:0] $end
$var reg 3 "" funct_imm [2:0] $end
$var reg 1 D load $end
$var reg 3 #" salida_funct3 [2:0] $end
$var reg 1 / store $end
$var reg 1 ' we $end
$upscope $end
$scope module dm $end
$var wire 1 ! clk $end
$var wire 32 $" store_data [31:0] $end
$var wire 1 . store $end
$var wire 32 %" offset [31:0] $end
$var wire 1 A load $end
$var wire 32 &" direccion [31:0] $end
$var wire 32 '" address [31:0] $end
$var wire 3 (" Type [2:0] $end
$var parameter 32 )" TAM $end
$var reg 32 *" count [31:0] $end
$var reg 32 +" data [31:0] $end
$var reg 32 ," load_data [31:0] $end
$upscope $end
$scope module exmem $end
$var wire 1 ! clk $end
$var wire 32 -" result_in [31:0] $end
$var wire 1 # rst $end
$var wire 1 % we_in $end
$var wire 32 ." sum_out_in [31:0] $end
$var wire 1 - store_in $end
$var wire 5 /" rd_in [4:0] $end
$var wire 1 @ load_in $end
$var wire 32 0" imm_in [31:0] $end
$var wire 32 1" data2_in [31:0] $end
$var wire 32 2" data1_in [31:0] $end
$var wire 2 3" controlRF_in [1:0] $end
$var wire 3 4" Type_dm_in [2:0] $end
$var reg 3 5" Type_dm_out [2:0] $end
$var reg 2 6" controlRF_out [1:0] $end
$var reg 32 7" data1_out [31:0] $end
$var reg 32 8" data2_out [31:0] $end
$var reg 32 9" imm_out [31:0] $end
$var reg 1 A load_out $end
$var reg 5 :" rd_out [4:0] $end
$var reg 32 ;" result_out [31:0] $end
$var reg 1 . store_out $end
$var reg 32 <" sum_out_out [31:0] $end
$var reg 1 & we_out $end
$upscope $end
$scope module forward $end
$var wire 1 & RUWrme $end
$var wire 5 =" rd_mem [4:0] $end
$var wire 5 >" rs2_idex [4:0] $end
$var wire 5 ?" rs1_idex [4:0] $end
$var wire 5 @" rd_wb [4:0] $end
$var wire 1 $ RUWrwb $end
$var reg 2 A" control1 [1:0] $end
$var reg 2 B" control2 [1:0] $end
$upscope $end
$scope module hazard $end
$var wire 5 C" loadRs1 [4:0] $end
$var wire 5 D" loadRs2 [4:0] $end
$var wire 5 E" loadRd [4:0] $end
$var wire 1 @ load $end
$var reg 1 J control $end
$upscope $end
$scope module idex $end
$var wire 5 F" BrOp_in [4:0] $end
$var wire 1 d NextPCSrc_in $end
$var wire 1 c Type_alu_in $end
$var wire 3 G" Type_dm_in [2:0] $end
$var wire 1 ! clk $end
$var wire 1 \ controlALU_in $end
$var wire 1 Z controlOp1_in $end
$var wire 2 H" controlRF_in [1:0] $end
$var wire 3 I" funct3_alu_in [2:0] $end
$var wire 1 J hazard_detection $end
$var wire 1 D load_in $end
$var wire 5 J" rd_in [4:0] $end
$var wire 5 K" rs1_in [4:0] $end
$var wire 5 L" rs2_in [4:0] $end
$var wire 1 # rst $end
$var wire 1 / store_in $end
$var wire 1 ' we_in $end
$var wire 32 M" sum_out_in [31:0] $end
$var wire 32 N" pc_out_in [31:0] $end
$var wire 32 O" imm_in [31:0] $end
$var wire 32 P" data2_in [31:0] $end
$var wire 32 Q" data1_in [31:0] $end
$var reg 5 R" BrOp_out [4:0] $end
$var reg 1 b Type_alu_out $end
$var reg 3 S" Type_dm_out [2:0] $end
$var reg 1 [ controlALU_out $end
$var reg 1 Y controlOp1_out $end
$var reg 2 T" controlRF_out [1:0] $end
$var reg 32 U" data1_out [31:0] $end
$var reg 32 V" data2_out [31:0] $end
$var reg 3 W" funct3_alu_out [2:0] $end
$var reg 32 X" imm_out [31:0] $end
$var reg 1 @ load_out $end
$var reg 32 Y" pc_out_out [31:0] $end
$var reg 5 Z" rd_out [4:0] $end
$var reg 5 [" rs1_out [4:0] $end
$var reg 5 \" rs2_out [4:0] $end
$var reg 1 - store_out $end
$var reg 32 ]" sum_out_out [31:0] $end
$var reg 1 % we_out $end
$upscope $end
$scope module ifid $end
$var wire 1 d NextPCSrc_in $end
$var wire 1 ! clk $end
$var wire 1 J hazard_detection $end
$var wire 1 # rst $end
$var wire 32 ^" sum_out_in [31:0] $end
$var wire 32 _" pc_out_in [31:0] $end
$var wire 32 `" instruction_in [31:0] $end
$var reg 32 a" instruction_out [31:0] $end
$var reg 32 b" pc_out_out [31:0] $end
$var reg 32 c" sum_out_out [31:0] $end
$upscope $end
$scope module im $end
$var wire 32 d" pc [31:0] $end
$var parameter 32 e" TAM $end
$var reg 32 f" instruction [31:0] $end
$var reg 32 g" pc_in [31:0] $end
$upscope $end
$scope module imm $end
$var wire 3 h" funct [2:0] $end
$var wire 25 i" immediate [24:0] $end
$var reg 32 j" imm32 [31:0] $end
$upscope $end
$scope module memwb $end
$var wire 1 ! clk $end
$var wire 2 k" controlRF_in [1:0] $end
$var wire 32 l" loadData_in [31:0] $end
$var wire 5 m" rd_in [4:0] $end
$var wire 32 n" result_in [31:0] $end
$var wire 1 # rst $end
$var wire 32 o" sum_out_in [31:0] $end
$var wire 1 & we_in $end
$var reg 2 p" controlRF_out [1:0] $end
$var reg 32 q" loadData_out [31:0] $end
$var reg 5 r" rd_out [4:0] $end
$var reg 32 s" result_out [31:0] $end
$var reg 32 t" sum_out_out [31:0] $end
$var reg 1 $ we_out $end
$upscope $end
$scope module mux1 $end
$var wire 1 [ control $end
$var wire 32 u" entrada2 [31:0] $end
$var wire 32 v" entrada1 [31:0] $end
$var reg 32 w" salida [31:0] $end
$upscope $end
$scope module mux2 $end
$var wire 2 x" control [1:0] $end
$var wire 32 y" entrada1 [31:0] $end
$var wire 32 z" entrada2 [31:0] $end
$var wire 32 {" entrada3 [31:0] $end
$var wire 32 |" salida [31:0] $end
$upscope $end
$scope module mux3 $end
$var wire 1 d control $end
$var wire 32 }" entrada2 [31:0] $end
$var wire 32 ~" entrada1 [31:0] $end
$var reg 32 !# salida [31:0] $end
$upscope $end
$scope module mux4 $end
$var wire 1 Y control $end
$var wire 32 "# entrada2 [31:0] $end
$var wire 32 ## entrada1 [31:0] $end
$var reg 32 $# salida [31:0] $end
$upscope $end
$scope module mux_data1 $end
$var wire 2 %# control [1:0] $end
$var wire 32 &# entrada1 [31:0] $end
$var wire 32 '# entrada2 [31:0] $end
$var wire 32 (# entrada3 [31:0] $end
$var wire 32 )# salida [31:0] $end
$upscope $end
$scope module mux_data2 $end
$var wire 2 *# control [1:0] $end
$var wire 32 +# entrada1 [31:0] $end
$var wire 32 ,# entrada2 [31:0] $end
$var wire 32 -# entrada3 [31:0] $end
$var wire 32 .# salida [31:0] $end
$upscope $end
$scope module pc $end
$var wire 1 ! clk $end
$var wire 1 J enable $end
$var wire 32 /# pc_in [31:0] $end
$var wire 1 " reset $end
$var reg 32 0# pc_out [31:0] $end
$upscope $end
$scope module rf $end
$var wire 1 $ WriteEnable $end
$var wire 1 ! clk $end
$var wire 32 1# data [31:0] $end
$var wire 5 2# rd [4:0] $end
$var wire 5 3# rs1 [4:0] $end
$var wire 5 4# rs2 [4:0] $end
$var wire 1 # rst $end
$var reg 32 5# data1 [31:0] $end
$var reg 32 6# data2 [31:0] $end
$var reg 32 7# i [31:0] $end
$upscope $end
$scope module sumador $end
$var wire 32 8# pc [31:0] $end
$var reg 32 9# sum_out [31:0] $end
$upscope $end
$upscope $end
$upscope $end
$enddefinitions $end
$comment Show the parameter values. $end
$dumpall
b1111111111 e"
b1111111111 )"
b1111111111 g
$end
#0
$dumpvars
bx 9#
bx 8#
bx 7#
bx 6#
bx 5#
bx 4#
bx 3#
b0 2#
b0 1#
bx 0#
bx /#
b0 .#
b0 -#
b0 ,#
b0 +#
b0 *#
b0 )#
b0 (#
b0 '#
b0 &#
b0 %#
b0 $#
b0 ##
b0 "#
bx !#
bx ~"
b0 }"
b0 |"
b0 {"
b0 z"
b0 y"
b0 x"
b0 w"
b0 v"
b0 u"
b0 t"
b0 s"
b0 r"
b0 q"
b0 p"
b0 o"
b0 n"
b0 m"
bx l"
b0 k"
bx j"
bx i"
bx h"
bx g"
bx f"
bx d"
b0 c"
b0 b"
b0 a"
bx `"
bx _"
bx ^"
b0 ]"
b0 \"
b0 ["
b0 Z"
b0 Y"
b0 X"
b0 W"
b0 V"
b0 U"
b0 T"
b0 S"
b0 R"
bx Q"
bx P"
bx O"
b0 N"
b0 M"
bx L"
bx K"
bx J"
bx I"
bx H"
bx G"
bx F"
b0 E"
bx D"
bx C"
b0 B"
b0 A"
b0 @"
b0 ?"
b0 >"
b0 ="
b0 <"
b0 ;"
b0 :"
b0 9"
b0 8"
b0 7"
b0 6"
b0 5"
b0 4"
b0 3"
b0 2"
b0 1"
b0 0"
b0 /"
b0 ."
b0 -"
bx ,"
bx +"
bx *"
b0 ("
b0 '"
b0 &"
b0 %"
b0 $"
bx #"
bx ""
bx !"
bx ~
bx }
bx |
bx {
bx z
b0 y
b0 x
b0 w
b0 v
bx u
xt
b0 s
b0 r
b0 q
zp
bx o
bx n
1m
bx l
bx k
bx j
bx i
bx h
bx f
b0 e
0d
xc
0b
bx a
b0 `
b0 _
b0 ^
b0 ]
x\
0[
xZ
0Y
bx X
b0 W
b0 V
b0 U
b0 T
bx S
b0 R
b0 Q
b0 P
bx O
b0 N
b0 M
b0 L
bx K
0J
bx I
b0 H
b0 G
bx F
b0 E
xD
b0 C
bx B
xA
x@
b0 ?
b0 >
bx =
bx <
b0 ;
b0 :
b0 9
b0 8
b0 7
b0 6
b0 5
b0 4
b0 3
b0 2
bx 1
b0 0
x/
0.
0-
bx ,
b0 +
b0 *
b0 )
b0 (
x'
0&
0%
0$
1#
x"
1!
$end
#5
bx L
bx 1"
bx v"
bx .#
bx P
bx 2"
bx ##
bx )#
bx T
bx |"
bx (#
bx -#
bx 1#
bx )
bx M"
bx c"
bx :
bx N"
bx b"
bx E
bx a"
xY
bx e
bx y
bx R"
bx _
bx 4"
bx S"
xb
bx 0
bx s
bx W"
x-
x[
bx V
bx 3"
bx T"
x%
bx G
bx 0"
bx X"
bx u"
bx M
bx w
bx V"
bx +#
bx Q
bx x
bx U"
bx &#
bx C
bx q"
bx y"
b0 j
b0 i"
b0 o
b0 D"
b0 L"
b0 4#
b0 n
b0 C"
b0 K"
b0 3#
b0 l
b0 J"
b0 i
b0 {
b0 h
b0 z
b0 k
b0 |
0!
#10
bx j
bx i"
bx o
bx D"
bx L"
bx 4#
bx n
bx C"
bx K"
bx 3#
bx l
bx J"
bx i
bx {
bx h
bx z
bx k
bx |
1!
1"
0#
#15
b1000000000010000110011 F
b1000000000010000110011 `"
b1000000000010000110011 f"
b100 =
b100 !#
b100 /#
b100 ,
b100 ^"
b100 ~"
b100 9#
x.
bx N
bx $"
bx 8"
bx R
bx &"
bx 7"
bx `
bx ("
bx 5"
bx W
bx 6"
bx k"
x&
bx '"
bx H
bx %"
bx 9"
bx 2
bx >"
bx \"
bx 3
bx ?"
bx ["
bx 8
bx /"
bx E"
bx Z"
bx ;
bx Y"
bx "#
bx *
bx ."
bx ]"
b0 <
b0 _"
b0 d"
b0 0#
b0 8#
0!
#20
1!
0"
#25
b100010010000000100011 F
b100010010000000100011 `"
b100010010000000100011 f"
b1000 =
b1000 !#
b1000 /#
b1000 ,
b1000 ^"
b1000 ~"
b1000 9#
b100 <
b100 _"
b100 d"
b100 0#
b100 8#
b100 )
b100 M"
b100 c"
b0 :
b0 N"
b0 b"
b1000000000010000110011 E
b1000000000010000110011 a"
bx 9
bx :"
bx ="
bx m"
bx +
bx <"
bx o"
x$
bx U
bx p"
bx x"
0!
#30
b111110100 O
b111110100 P"
b111110100 6#
b0 S
b0 Q"
b0 5#
0c
b0 1
b0 #"
b0 I"
b1 X
b1 !"
b1 H"
1'
0Z
0\
b0 f
b0 }
b0 F"
0D
0/
b100000000001000 j
b100000000001000 i"
b10 o
b10 D"
b10 L"
b10 4#
b0 n
b0 C"
b0 K"
b0 3#
b1000 l
b1000 J"
b0 i
b0 {
b0 h
b0 z
b110011 k
b110011 |
1!
#35
b11111111110000010000000100010011 F
b11111111110000010000000100010011 `"
b11111111110000010000000100010011 f"
b1100 =
b1100 !#
b1100 /#
b111110100 6
b111110100 v
b111110100 -"
b111110100 }"
b111110100 >
b111110100 q
b111110100 w"
b111110100 L
b111110100 1"
b111110100 v"
b111110100 .#
b0 P
b0 2"
b0 ##
b0 )#
b0 ?
b0 r
b0 $#
b1100 ,
b1100 ^"
b1100 ~"
b1100 9#
bx 7
bx @"
bx r"
bx 2#
bx (
bx t"
bx {"
0@
0Y
b0 e
b0 y
b0 R"
0b
b0 0
b0 s
b0 W"
0-
0[
b1 V
b1 3"
b1 T"
1%
b10 2
b10 >"
b10 \"
b0 3
b0 ?"
b0 ["
b1000 8
b1000 /"
b1000 E"
b1000 Z"
b111110100 M
b111110100 w
b111110100 V"
b111110100 +#
b0 Q
b0 x
b0 U"
b0 &#
b0 ;
b0 Y"
b0 "#
b100 *
b100 ."
b100 ]"
b1000 )
b1000 M"
b1000 c"
b100 :
b100 N"
b100 b"
b100010010000000100011 E
b100010010000000100011 a"
b1000 <
b1000 _"
b1000 d"
b1000 0#
b1000 8#
0!
#40
b0 O
b0 P"
b0 6#
b111110100 S
b111110100 Q"
b111110100 5#
b0 I
b0 O"
b0 j"
b10 a
b10 ~
b10 G"
b1 K
b1 ""
b1 h"
0'
1/
b10001001000000 j
b10001001000000 i"
b1 o
b1 D"
b1 L"
b1 4#
b10 n
b10 C"
b10 K"
b10 3#
b0 l
b0 J"
b10 h
b10 z
b100011 k
b100011 |
1!
#45
b10001000010010100000011 F
b10001000010010100000011 `"
b10001000010010100000011 f"
b10000 =
b10000 !#
b10000 /#
b111110100 ?
b111110100 r
b111110100 $#
b10000 ,
b10000 ^"
b10000 ~"
b10000 9#
b0 >
b0 q
b0 w"
b0 L
b0 1"
b0 v"
b0 .#
b111110100 P
b111110100 2"
b111110100 ##
b111110100 )#
b1100 <
b1100 _"
b1100 d"
b1100 0#
b1100 8#
b1100 )
b1100 M"
b1100 c"
b1000 :
b1000 N"
b1000 b"
b11111111110000010000000100010011 E
b11111111110000010000000100010011 a"
b10 _
b10 4"
b10 S"
1-
0%
b1 2
b1 >"
b1 \"
b10 3
b10 ?"
b10 ["
b0 8
b0 /"
b0 E"
b0 Z"
b0 G
b0 0"
b0 X"
b0 u"
b0 M
b0 w
b0 V"
b0 +#
b111110100 Q
b111110100 x
b111110100 U"
b111110100 &#
b100 ;
b100 Y"
b100 "#
b1000 *
b1000 ."
b1000 ]"
0A
0.
b111110100 N
b111110100 $"
b111110100 8"
b0 R
b0 &"
b0 7"
b1 W
b1 6"
b1 k"
1&
b1000 9
b1000 :"
b1000 ="
b1000 m"
b111110100 5
b111110100 ;"
b111110100 n"
b111110100 '#
b111110100 ,#
b100 +
b100 <"
b100 o"
0!
#50
b11111111111111111111111111111100 I
b11111111111111111111111111111100 O"
b11111111111111111111111111111100 j"
b0 K
b0 ""
b0 h"
1'
1\
0/
b1111111111000001000000010 j
b1111111111000001000000010 i"
b11100 o
b11100 D"
b11100 L"
b11100 4#
b10 l
b10 J"
b1111111 i
b1111111 {
b0 h
b0 z
b10011 k
b10011 |
1!
#55
b101000010010000000100011 F
b101000010010000000100011 `"
b101000010010000000100011 f"
b111110000 6
b111110000 v
b111110000 -"
b111110000 }"
b10100 =
b10100 !#
b10100 /#
b111110100 T
b111110100 |"
b111110100 (#
b111110100 -#
b111110100 1#
b11111111111111111111111111111100 >
b11111111111111111111111111111100 q
b11111111111111111111111111111100 w"
b10100 ,
b10100 ^"
b10100 ~"
b10100 9#
b1000 7
b1000 @"
b1000 r"
b1000 2#
1$
b1 U
b1 p"
b1 x"
b111110100 4
b111110100 s"
b111110100 z"
b100 (
b100 t"
b100 {"
1.
b0 N
b0 $"
b0 8"
b111110100 R
b111110100 &"
b111110100 7"
b10 `
b10 ("
b10 5"
0&
b0 9
b0 :"
b0 ="
b0 m"
b111110100000 '"
b0 H
b0 %"
b0 9"
b1000 +
b1000 <"
b1000 o"
0-
1[
1%
b11100 2
b11100 >"
b11100 \"
b10 8
b10 /"
b10 E"
b10 Z"
b11111111111111111111111111111100 G
b11111111111111111111111111111100 0"
b11111111111111111111111111111100 X"
b11111111111111111111111111111100 u"
b1000 ;
b1000 Y"
b1000 "#
b1100 *
b1100 ."
b1100 ]"
b10000 )
b10000 M"
b10000 c"
b1100 :
b1100 N"
b1100 b"
b10001000010010100000011 E
b10001000010010100000011 a"
b10000 <
b10000 _"
b10000 d"
b10000 0#
b10000 8#
0!
#60
b0 S
b0 Q"
b0 5#
b100 I
b100 O"
b100 j"
b0 X
b0 !"
b0 H"
1D
b1000100001001010 j
b1000100001001010 i"
b100 o
b100 D"
b100 L"
b100 4#
b1000 n
b1000 C"
b1000 K"
b1000 3#
b1010 l
b1010 J"
b0 i
b0 {
b10 h
b10 z
b11 k
b11 |
1!
#65
b11111111110000010000000100010011 F
b11111111110000010000000100010011 `"
b11111111110000010000000100010011 f"
b11000 =
b11000 !#
b11000 /#
b100 6
b100 v
b100 -"
b100 }"
b0 ?
b0 r
b0 $#
b11000 ,
b11000 ^"
b11000 ~"
b11000 9#
b100 >
b100 q
b100 w"
b0 P
b0 2"
b0 ##
b0 )#
b10100 <
b10100 _"
b10100 d"
b10100 0#
b10100 8#
b10100 )
b10100 M"
b10100 c"
b10000 :
b10000 N"
b10000 b"
b101000010010000000100011 E
b101000010010000000100011 a"
1@
b0 V
b0 3"
b0 T"
b100 2
b100 >"
b100 \"
b1000 3
b1000 ?"
b1000 ["
b1010 8
b1010 /"
b1010 E"
b1010 Z"
b100 G
b100 0"
b100 X"
b100 u"
b0 Q
b0 x
b0 U"
b0 &#
b1100 ;
b1100 Y"
b1100 "#
b10000 *
b10000 ."
b10000 ]"
0.
1&
b10 9
b10 :"
b10 ="
b10 m"
b111110000000 '"
b11111111111111111111111111111100 H
b11111111111111111111111111111100 %"
b11111111111111111111111111111100 9"
b111110000 5
b111110000 ;"
b111110000 n"
b111110000 '#
b111110000 ,#
b1100 +
b1100 <"
b1100 o"
b0 7
b0 @"
b0 r"
b0 2#
0$
b1000 (
b1000 t"
b1000 {"
b100000 *"
0!
#70
b0 6
b0 v
b0 -"
b0 }"
b0 >
b0 q
b0 w"
b0 _
b0 4"
b0 S"
0[
b111110100 S
b111110100 Q"
b111110100 5#
b0 I
b0 O"
b0 j"
1J
b1 K
b1 ""
b1 h"
0'
0D
1/
b10100001001000000 j
b10100001001000000 i"
b1010 o
b1010 D"
b1010 L"
b1010 4#
b10 n
b10 C"
b10 K"
b10 3#
b0 l
b0 J"
b100011 k
b100011 |
1!
#75
b111110000 6
b111110000 v
b111110000 -"
b111110000 }"
b111110000 T
b111110000 |"
b111110000 (#
b111110000 -#
b111110000 1#
b111110000 ?
b111110000 r
b111110000 $#
b1000 *"
b1 ]
b1 B"
b1 *#
b10 ^
b10 A"
b10 %#
0J
b111110000 P
b111110000 2"
b111110000 ##
b111110000 )#
b10 7
b10 @"
b10 r"
b10 2#
1$
b111110000 4
b111110000 s"
b111110000 z"
b1100 (
b1100 t"
b1100 {"
1A
b0 R
b0 &"
b0 7"
b0 `
b0 ("
b0 5"
b0 W
b0 6"
b0 k"
b1010 9
b1010 :"
b1010 ="
b1010 m"
b100000 '"
b100 H
b100 %"
b100 9"
b0 5
b0 ;"
b0 n"
b0 '#
b0 ,#
b10000 +
b10000 <"
b10000 o"
0@
b10 _
b10 4"
b10 S"
1-
1[
0%
b1010 2
b1010 >"
b1010 \"
b10 3
b10 ?"
b10 ["
b0 8
b0 /"
b0 E"
b0 Z"
b0 G
b0 0"
b0 X"
b0 u"
b111110100 Q
b111110100 x
b111110100 U"
b111110100 &#
b10000 ;
b10000 Y"
b10000 "#
b10100 *
b10100 ."
b10100 ]"
0!
#80
1!
#85
b10100010011 F
b10100010011 `"
b10100010011 f"
b111110100 6
b111110100 v
b111110100 -"
b111110100 }"
b111110100 ?
b111110100 r
b111110100 $#
b11100 =
b11100 !#
b11100 /#
bx L
bx 1"
bx v"
bx .#
b111110100 P
b111110100 2"
b111110100 ##
b111110100 )#
b11100 ,
b11100 ^"
b11100 ~"
b11100 9#
b10 ]
b10 B"
b10 *#
b0 ^
b0 A"
b0 %#
bx T
bx |"
bx (#
bx -#
bx 1#
b11000 <
b11000 _"
b11000 d"
b11000 0#
b11000 8#
b11000 )
b11000 M"
b11000 c"
b10100 :
b10100 N"
b10100 b"
b11111111110000010000000100010011 E
b11111111110000010000000100010011 a"
0A
1.
b111110000 R
b111110000 &"
b111110000 7"
b10 `
b10 ("
b10 5"
0&
b0 9
b0 :"
b0 ="
b0 m"
b111110000000 '"
b0 H
b0 %"
b0 9"
b111110000 5
b111110000 ;"
b111110000 n"
b111110000 '#
b111110000 ,#
b10100 +
b10100 <"
b10100 o"
b1010 7
b1010 @"
b1010 r"
b1010 2#
b0 U
b0 p"
b0 x"
b0 4
b0 s"
b0 z"
b10000 (
b10000 t"
b10000 {"
0!
#90
b111110000 S
b111110000 Q"
b111110000 5#
b11111111111111111111111111111100 I
b11111111111111111111111111111100 O"
b11111111111111111111111111111100 j"
b0 K
b0 ""
b0 h"
b1 X
b1 !"
b1 H"
1'
0/
b1111111111000001000000010 j
b1111111111000001000000010 i"
b11100 o
b11100 D"
b11100 L"
b11100 4#
b10 l
b10 J"
b1111111 i
b1111111 {
b0 h
b0 z
b10011 k
b10011 |
1!
#95
b10000010010001100000011 F
b10000010010001100000011 `"
b10000010010001100000011 f"
b0 L
b0 1"
b0 v"
b0 .#
b111101100 6
b111101100 v
b111101100 -"
b111101100 }"
b111110000 ?
b111110000 r
b111110000 $#
b100000 =
b100000 !#
b100000 /#
b0 ]
b0 B"
b0 *#
b11111111111111111111111111111100 >
b11111111111111111111111111111100 q
b11111111111111111111111111111100 w"
b111110000 P
b111110000 2"
b111110000 ##
b111110000 )#
b100000 ,
b100000 ^"
b100000 ~"
b100000 9#
b0 7
b0 @"
b0 r"
b0 2#
0$
b111110000 4
b111110000 s"
b111110000 z"
b10100 (
b10100 t"
b10100 {"
bx N
bx $"
bx 8"
b111110100000 '"
b111110100 R
b111110100 &"
b111110100 7"
b111110100 5
b111110100 ;"
b111110100 n"
b111110100 '#
b111110100 ,#
0-
b1 V
b1 3"
b1 T"
1%
b11100 2
b11100 >"
b11100 \"
b10 8
b10 /"
b10 E"
b10 Z"
b11111111111111111111111111111100 G
b11111111111111111111111111111100 0"
b11111111111111111111111111111100 X"
b11111111111111111111111111111100 u"
b111110000 Q
b111110000 x
b111110000 U"
b111110000 &#
b10100 ;
b10100 Y"
b10100 "#
b11000 *
b11000 ."
b11000 ]"
b11100 )
b11100 M"
b11100 c"
b11000 :
b11000 N"
b11000 b"
b10100010011 E
b10100010011 a"
b11100 <
b11100 _"
b11100 d"
b11100 0#
b11100 8#
b100000 *"
0!
#100
b0 S
b0 Q"
b0 5#
b0 I
b0 O"
b0 j"
b1010 j
b1010 i"
b0 o
b0 D"
b0 L"
b0 4#
b0 n
b0 C"
b0 K"
b0 3#
b1010 l
b1010 J"
b0 i
b0 {
1!
#105
b10000010000000100010011 F
b10000010000000100010011 `"
b10000010000000100010011 f"
b100100 =
b100100 !#
b100100 /#
b0 6
b0 v
b0 -"
b0 }"
b0 ?
b0 r
b0 $#
b100100 ,
b100100 ^"
b100100 ~"
b100100 9#
b0 >
b0 q
b0 w"
b0 P
b0 2"
b0 ##
b0 )#
b100000 <
b100000 _"
b100000 d"
b100000 0#
b100000 8#
b100000 )
b100000 M"
b100000 c"
b11100 :
b11100 N"
b11100 b"
b10000010010001100000011 E
b10000010010001100000011 a"
b0 2
b0 >"
b0 \"
b0 3
b0 ?"
b0 ["
b1010 8
b1010 /"
b1010 E"
b1010 Z"
b0 G
b0 0"
b0 X"
b0 u"
b0 Q
b0 x
b0 U"
b0 &#
b11000 ;
b11000 Y"
b11000 "#
b11100 *
b11100 ."
b11100 ]"
0.
b0 N
b0 $"
b0 8"
b111110000 R
b111110000 &"
b111110000 7"
b1 W
b1 6"
b1 k"
1&
b10 9
b10 :"
b10 ="
b10 m"
b111101100000 '"
b11111111111111111111111111111100 H
b11111111111111111111111111111100 %"
b11111111111111111111111111111100 9"
b111101100 5
b111101100 ;"
b111101100 n"
b111101100 '#
b111101100 ,#
b11000 +
b11000 <"
b11000 o"
b111110100 4
b111110100 s"
b111110100 z"
b100000 *"
0!
#110
b111110000 S
b111110000 Q"
b111110000 5#
b100 I
b100 O"
b100 j"
b0 X
b0 !"
b0 H"
1D
b1000001001000110 j
b1000001001000110 i"
b100 o
b100 D"
b100 L"
b100 4#
b10 n
b10 C"
b10 K"
b10 3#
b110 l
b110 J"
b10 h
b10 z
b11 k
b11 |
1!
